unisim/extra/shmidcat/sample.vcd
$version
TODO: fill here the simulator version
$end
$comment
TODO: fill here any comment
$end
$timescale 1 ms $end
$scope module logic $end
$var wire 1 ! PWM_channel_0 $end
$var wire 1 " PWM_channel_1 $end
$var wire 1 # PWM_channel_2 $end
$var wire 1 $ PWM_channel_3 $end
$var wire 1 % PWM_channel_4 $end
$var wire 1 & PWM_channel_5 $end
$var wire 1 ' PWM_channel_6 $end
$var wire 1 ( PWM_channel_7 $end
$var wire 1 ) ECT_ioc_0 $end
$var wire 1 * ECT_ioc_1 $end
$var wire 1 + ECT_ioc_2 $end
$var wire 1 , ECT_ioc_3 $end
$var wire 1 - ECT_ioc_4 $end
$var wire 1 . ECT_ioc_5 $end
$var wire 1 / ECT_ioc_6 $end
$var wire 1 0 ECT_ioc_7 $end
$upscope $end
$enddefinitions $end
$dumpvars
0"
0#
0!
0&
0'
0$
0%
0*
0+
0(
0)
0.
0/
0,
0-
00
$end
#0
0!
#0
0"
#0
0#
#0
0$
#0
0%
#0
0&
#0
0'
#0
0(
#0
0)
#0
1*
#0
0+
#0
1,
#0
1-
#0
1.
#0
0/
#1.726
0!
#1.726
0"
#1.726
0#
#1.726
0$
#1.726
0%
#1.726
0&
#1.726
0'
#1.726
0(
#1.726
0)
#1.726
1*
#1.726
0+
#1.726
1,
#1.726
1-
#1.726
1.
#1.726
1/
#3.139
0!
#3.139
0"
#3.139
0#
#3.139
0$
#3.139
0%
#3.139
0&
#3.139
0'
#3.139
0(
#3.139
0)
#3.139
1*
#3.139
0+
#3.139
1,
#3.139
1-
#3.139
0.
#3.139
0/
#5.002
0!
#5.002
0"
#5.002
0#
#5.002
0$
#5.002
0%
#5.002
0&
#5.002
0'
#5.002
0(
#5.002
1)
#5.002
1*
#5.002
1+
#5.002
0,
#5.002
1-
#5.002
1.
#5.002
1/
#6.551
0!
#6.551
0"
#6.551
0#
#6.551
0$
#6.551
0%
#6.551
0&
#6.551
0'
#6.551
0(
#6.551
1)
#6.551
0*
#6.551
0+
#6.551
0,
#6.551
1-
#6.551
0.
#6.551
1/
#8.002
0!
#8.002
0"
#8.002
1#
#8.002
0$
#8.002
0%
#8.002
1&
#8.002
1'
#8.002
0(
#8.002
0)
#8.002
1*
#8.002
1+
#8.002
0,
#8.002
0-
#8.002
1.
#8.002
0/
#10.004
1!
#10.004
0"
#10.004
1#
#10.004
1$
#10.004
0%
#10.004
0&
#10.004
0'
#10.004
0(
#10.004
1)
#10.004
0*
#10.004
1+
#10.004
1,
#10.004
1-
#10.004
1.
#10.004
1/
#11.145
0!
#11.145
1"
#11.145
1#
#11.145
0$
#11.145
0%
#11.145
1&
#11.145
1'
#11.145
1(
#11.145
1)
#11.145
1*
#11.145
0+
#11.145
0,
#11.145
1-
#11.145
1.
#11.145
0/
#13.004
0!
#13.004
1"
#13.004
0#
#13.004
0$
#13.004
0%
#13.004
1&
#13.004
1'
#13.004
1(
#13.004
1)
#13.004
0*
#13.004
1+
#13.004
1,
#13.004
0-
#13.004
1.
#13.004
0/
#14.85
0!
#14.85
1"
#14.85
0#
#14.85
0$
#14.85
1%
#14.85
1&
#14.85
1'
#14.85
1(
#14.85
0)
#14.85
0*
#14.85
0+
#14.85
1,
#14.85
0-
#14.85
0.
#14.85
0/
#16.074
0!
#16.074
0"
#16.074
1#
#16.074
0$
#16.074
0%
#16.074
1&
#16.074
1'
#16.074
1(
#16.074
1)
#16.074
0*
#16.074
1+
#16.074
0,
#16.074
0-
#16.074
1.
#16.074
1/
#18.006
0!
#18.006
1"
#18.006
0#
#18.006
0$
#18.006
1%
#18.006
1&
#18.006
1'
#18.006
1(
#18.006
1)
#18.006
0*
#18.006
0+
#18.006
1,
#18.006
0-
#18.006
1.
#18.006
1/
#19.86
1!
#19.86
0"
#19.86
0#
#19.86
1$
#19.86
1%
#19.86
0&
#19.86
0'
#19.86
0(
#19.86
1)
#19.86
1*
#19.86
1+
#19.86
0,
#19.86
0-
#19.86
0.
#19.86
0/
#21.075
1!
#21.075
0"
#21.075
1#
#21.075
1$
#21.075
0%
#21.075
1&
#21.075
1'
#21.075
1(
#21.075
0)
#21.075
1*
#21.075
1+
#21.075
0,
#21.075
1-
#21.075
1.
#21.075
1/
#23.008
1!
#23.008
1"
#23.008
0#
#23.008
0$
#23.008
1%
#23.008
0&
#23.008
1'
#23.008
1(
#23.008
0)
#23.008
1*
#23.008
1+
#23.008
1,
#23.008
0-
#23.008
1.
#23.008
0/
#24.515
0!
#24.515
1"
#24.515
0#
#24.515
0$
#24.515
1%
#24.515
0&
#24.515
0'
#24.515
1(
#24.515
1)
#24.515
1*
#24.515
0+
#24.515
0,
#24.515
1-
#24.515
1.
#24.515
0/
#26.008
1!
#26.008
0"
#26.008
1#
#26.008
1$
#26.008
1%
#26.008
0&
#26.008
0'
#26.008
0(
#26.008
1)
#26.008
0*
#26.008
0+
#26.008
1,
#26.008
0-
#26.008
0.
#26.008
0/
#28.008
1!
#28.008
1"
#28.008
0#
#28.008
0$
#28.008
1%
#28.008
1&
#28.008
1'
#28.008
1(
#28.008
0)
#28.008
1*
#28.008
1+
#28.008
0,
#28.008
1-
#28.008
1.
#28.008
0/
#29.574
1!
#29.574
1"
#29.574
0#
#29.574
0$
#29.574
1%
#29.574
0&
#29.574
0'
#29.574
0(
#29.574
1)
#29.574
0*
#29.574
1+
#29.574
0,
#29.574
1-
#29.574
1.
#29.574
0/
#31.01
0!
#31.01
0"
#31.01
1#
#31.01
1$
#31.01
0%
#31.01
1&
#31.01
0'
#31.01
0(
#31.01
1)
#31.01
0*
#31.01
0+
#31.01
0,
#31.01
1-
#31.01
1.
#31.01
1/
#32.951
0!
#32.951
1"
#32.951
0#
#32.951
0$
#32.951
1%
#32.951
1&
#32.951
1'
#32.951
1(
#32.951
1)
#32.951
0*
#32.951
0+
#32.951
0,
#32.951
1-
#32.951
0.
#32.951
1/
#34.011
1!
#34.011
1"
#34.011
0#
#34.011
0$
#34.011
1%
#34.011
1&
#34.011
1'
#34.011
1(
#34.011
0)
#34.011
1*
#34.011
1+
#34.011
1,
#34.011
0-
#34.011
0.
#34.011
0/
#36.011
0!
#36.011
0"
#36.011
1#
#36.011
1$
#36.011
0%
#36.011
1&
#36.011
0'
#36.011
0(
#36.011
0)
#36.011
1*
#36.011
0+
#36.011
1,
#36.011
1-
#36.011
0.
#36.011
0/
#37.416
1!
#37.416
0"
#37.416
1#
#37.416
1$
#37.416
0%
#37.416
1&
#37.416
1'
#37.416
1(
#37.416
0)
#37.416
1*
#37.416
0+
#37.416
0,
#37.416
1-
#37.416
1.
#37.416
1/
#39.013
1!
#39.013
1"
#39.013
0#
#39.013
1$
#39.013
1%
#39.013
0&
#39.013
0'
#39.013
1(
#39.013
0)
#39.013
1*
#39.013
1+
#39.013
1,
#39.013
0-
#39.013
0.
#39.013
0/
#40.683
0!
#40.683
1"
#40.683
0#
#40.683
0$
#40.683
1%
#40.683
0&
#40.683
0'
#40.683
1(
#40.683
0)
#40.683
1*
#40.683
0+
#40.683
1,
#40.683
1-
#40.683
1.
#40.683
0/
#42.014
0!
#42.014
0"
#42.014
1#
#42.014
0$
#42.014
0%
#42.014
1&
#42.014
1'
#42.014
0(
#42.014
1)
#42.014
1*
#42.014
1+
#42.014
1,
#42.014
0-
#42.014
1.
#42.014
0/
#43.698
0!
#43.698
0"
#43.698
1#
#43.698
1$
#43.698
0%
#43.698
1&
#43.698
1'
#43.698
0(
#43.698
0)
#43.698
0*
#43.698
1+
#43.698
1,
#43.698
1-
#43.698
0.
#43.698
0/
#45.015
0!
#45.015
1"
#45.015
0#
#45.015
0$
#45.015
1%
#45.015
0&
#45.015
1'
#45.015
1(
#45.015
0)
#45.015
1*
#45.015
1+
#45.015
0,
#45.015
0-
#45.015
0.
#45.015
0/
#47.016
0!
#47.016
0"
#47.016
1#
#47.016
1$
#47.016
0%
#47.016
1&
#47.016
0'
#47.016
0(
#47.016
1)
#47.016
0*
#47.016
1+
#47.016
0,
#47.016
0-
#47.016
0.
#47.016
0/
#48.466
0!
#48.466
0"
#48.466
1#
#48.466
0$
#48.466
0%
#48.466
1&
#48.466
1'
#48.466
1(
#48.466
0)
#48.466
1*
#48.466
0+
#48.466
0,
#48.466
1-
#48.466
1.
#48.466
0/
#50.016
0!
#50.016
0"
#50.016
1#
#50.016
0$
#50.016
0%
#50.016
1&
#50.016
1'
#50.016
1(
#50.016
0)
#50.016
1*
#50.016
1+
#50.016
0,
#50.016
1-
#50.016
1.
#50.016
1/
#51.533
0!
#51.533
0"
#51.533
1#
#51.533
0$
#51.533
0%
#51.533
1&
#51.533
1'
#51.533
1(
#51.533
0)
#51.533
0*
#51.533
0+
#51.533
1,
#51.533
1-
#51.533
0.
#51.533
0/
#53.017
0!
#53.017
1"
#53.017
0#
#53.017
0$
#53.017
1%
#53.017
0&
#53.017
1'
#53.017
1(
#53.017
1)
#53.017
1*
#53.017
1+
#53.017
1,
#53.017
0-
#53.017
1.
#53.017
0/
#55.018
0!
#55.018
0"
#55.018
1#
#55.018
1$
#55.018
0%
#55.018
1&
#55.018
0'
#55.018
0(
#55.018
0)
#55.018
0*
#55.018
1+
#55.018
1,
#55.018
1-
#55.018
1.
#55.018
0/
#56.212
0!
#56.212
1"
#56.212
0#
#56.212
1$
#56.212
1%
#56.212
0&
#56.212
0'
#56.212
0(
#56.212
0)
#56.212
1*
#56.212
0+
#56.212
0,
#56.212
1-
#56.212
0.
#56.212
0/
#58.019
0!
#58.019
1"
#58.019
0#
#58.019
0$
#58.019
0%
#58.019
1&
#58.019
1'
#58.019
1(
#58.019
1)
#58.019
0*
#58.019
0+
#58.019
1,
#58.019
1-
#58.019
1.
#58.019
0/
#59.847
0!
#59.847
0"
#59.847
1#
#59.847
0$
#59.847
0%
#59.847
1&
#59.847
1'
#59.847
1(
#59.847
0)
#59.847
0*
#59.847
1+
#59.847
0,
#59.847
0-
#59.847
1.
#59.847
0/
#61.02
0!
#61.02
1"
#61.02
0#
#61.02
0$
#61.02
1%
#61.02
0&
#61.02
0'
#61.02
1(
#61.02
0)
#61.02
0*
#61.02
1+
#61.02
1,
#61.02
1-
#61.02
1.
#61.02
0/
#63.021
0!
#63.021
0"
#63.021
1#
#63.021
0$
#63.021
0%
#63.021
1&
#63.021
1'
#63.021
0(
#63.021
0)
#63.021
0*
#63.021
1+
#63.021
1,
#63.021
1-
#63.021
1.
#63.021
0/
#64.176
0!
#64.176
1"
#64.176
0#
#64.176
0$
#64.176
1%
#64.176
0&
#64.176
1'
#64.176
1(
#64.176
0)
#64.176
1*
#64.176
1+
#64.176
0,
#64.176
0-
#64.176
0.
#64.176
0/
#66.022
0!
#66.022
1"
#66.022
0#
#66.022
0$
#66.022
0%
#66.022
1&
#66.022
1'
#66.022
1(
#66.022
0)
#66.022
1*
#66.022
1+
#66.022
1,
#66.022
0-
#66.022
0.
#66.022
1/
#67.863
0!
#67.863
1"
#67.863
0#
#67.863
1$
#67.863
1%
#67.863
0&
#67.863
0'
#67.863
0(
#67.863
0)
#67.863
0*
#67.863
0+
#67.863
1,
#67.863
0-
#67.863
0.
#67.863
0/
#69.022
0!
#69.022
1"
#69.022
0#
#69.022
0$
#69.022
1%
#69.022
0&
#69.022
0'
#69.022
0(
#69.022
1)
#69.022
1*
#69.022
1+
#69.022
1,
#69.022
0-
#69.022
0.
#69.022
0/
#71.023
0!
#71.023
0"
#71.023
1#
#71.023
1$
#71.023
0%
#71.023
1&
#71.023
0'
#71.023
0(
#71.023
0)
#71.023
0*
#71.023
1+
#71.023
0,
#71.023
0-
#71.023
0.
#71.023
1/
#72.423
0!
#72.423
1"
#72.423
0#
#72.423
1$
#72.423
1%
#72.423
0&
#72.423
0'
#72.423
0(
#72.423
0)
#72.423
0*
#72.423
1+
#72.423
0,
#72.423
0-
#72.423
0.
#72.423
0/
#74.024
0!
#74.024
1"
#74.024
1#
#74.024
0$
#74.024
0%
#74.024
1&
#74.024
1'
#74.024
1(
#74.024
0)
#74.024
1*
#74.024
0+
#74.024
0,
#74.024
1-
#74.024
0.
#74.024
1/
#75.989
0!
#75.989
1"
#75.989
0#
#75.989
1$
#75.989
1%
#75.989
0&
#75.989
0'
#75.989
0(
#75.989
0)
#75.989
0*
#75.989
0+
#75.989
1,
#75.989
0-
#75.989
1.
#75.989
0/
#77.134
0!
#77.134
0"
#77.134
1#
#77.134
1$
#77.134
0%
#77.134
1&
#77.134
1'
#77.134
1(
#77.134
0)
#77.134
1*
#77.134
0+
#77.134
0,
#77.134
1-
#77.134
1.
#77.134
0/
#79.026
0!
#79.026
0"
#79.026
1#
#79.026
0$
#79.026
0%
#79.026
1&
#79.026
1'
#79.026
0(
#79.026
1)
#79.026
1*
#79.026
1+
#79.026
0,
#79.026
1-
#79.026
0.
#79.026
1/
#80.659
0!
#80.659
0"
#80.659
1#
#80.659
1$
#80.659
0%
#80.659
1&
#80.659
1'
#80.659
0(
#80.659
0)
#80.659
0*
#80.659
1+
#80.659
0,
#80.659
1-
#80.659
0.
#80.659
1/
#82.027
0!
#82.027
1"
#82.027
0#
#82.027
0$
#82.027
0%
#82.027
1&
#82.027
1'
#82.027
1(
#82.027
1)
#82.027
0*
#82.027
0+
#82.027
0,
#82.027
1-
#82.027
0.
#82.027
0/
#84.028
0!
#84.028
0"
#84.028
1#
#84.028
1$
#84.028
1%
#84.028
0&
#84.028
0'
#84.028
0(
#84.028
1)
#84.028
1*
#84.028
1+
#84.028
1,
#84.028
0-
#84.028
1.
#84.028
1/
#85.158
0!
#85.158
1"
#85.158
0#
#85.158
0$
#85.158
1%
#85.158
0&
#85.158
0'
#85.158
0(
#85.158
0)
#85.158
1*
#85.158
0+
#85.158
0,
#85.158
1-
#85.158
1.
#85.158
0/
#87.028
0!
#87.028
0"
#87.028
1#
#87.028
1$
#87.028
0%
#87.028
1&
#87.028
1'
#87.028
0(
#87.028
1)
#87.028
1*
#87.028
0+
#87.028
1,
#87.028
1-
#87.028
1.
#87.028
0/
#89.018
0!
#89.018
0"
#89.018
0#
#89.018
1$
#89.018
1%
#89.018
0&
#89.018
0'
#89.018
0(
#89.018
1)
#89.018
0*
#89.018
1+
#89.018
0,
#89.018
0-
#89.018
1.
#89.018
0/
